<?xml version="1.0" encoding="UTF-8" standalone="no"?>
<svg
   xmlns:dc="http://purl.org/dc/elements/1.1/"
   xmlns:cc="http://creativecommons.org/ns#"
   xmlns:rdf="http://www.w3.org/1999/02/22-rdf-syntax-ns#"
   xmlns:svg="http://www.w3.org/2000/svg"
   xmlns="http://www.w3.org/2000/svg"
   xmlns:sodipodi="http://sodipodi.sourceforge.net/DTD/sodipodi-0.dtd"
   xmlns:inkscape="http://www.inkscape.org/namespaces/inkscape"
   width="316.41248"
   height="429.57889"
   id="svg2"
   version="1.1"
   inkscape:version="0.92.2 5c3e80d, 2017-08-06"
   sodipodi:docname="Peppa_Pig.svg">
  <defs
     id="defs4">
    <clipPath
       clipPathUnits="userSpaceOnUse"
       id="clipPath3151">
      <path
         inkscape:connector-curvature="0"
         d="m 190.636,589.727 h 234.532 v 54.819 H 190.636 Z"
         id="path3153" />
    </clipPath>
    <clipPath
       clipPathUnits="userSpaceOnUse"
       id="clipPath44048">
      <path
         inkscape:connector-curvature="0"
         d="m 203.262,624.717 h 143.86 v 30.418 h -143.86 z"
         id="path44050" />
    </clipPath>
    <clipPath
       clipPathUnits="userSpaceOnUse"
       id="clipPath44084">
      <path
         inkscape:connector-curvature="0"
         d="m 429.16,613.423 h 108.016 v 51.912 H 429.16 Z"
         id="path44086" />
    </clipPath>
    <clipPath
       clipPathUnits="userSpaceOnUse"
       id="clipPath60303">
      <path
         inkscape:connector-curvature="0"
         d="M 501.4608,74.18813 H 608.9319 V -4.244901 H 501.4608 Z"
         id="path60305" />
    </clipPath>
    <clipPath
       clipPathUnits="userSpaceOnUse"
       id="clipPath60309">
      <path
         inkscape:connector-curvature="0"
         d="m 520,19 h 69 v 39 h -69 z"
         id="path60311" />
    </clipPath>
    <clipPath
       clipPathUnits="userSpaceOnUse"
       id="clipPath61247">
      <path
         inkscape:connector-curvature="0"
         d="M 155.379,978 H 30 v -42.473 h 125.379 z"
         id="path61249" />
    </clipPath>
    <clipPath
       clipPathUnits="userSpaceOnUse"
       id="clipPath63360">
      <path
         inkscape:connector-curvature="0"
         d="M 401,88.301 H 560.468 V 36.977 H 401"
         id="path63362" />
    </clipPath>
    <clipPath
       clipPathUnits="userSpaceOnUse"
       id="clipPath63368">
      <path
         inkscape:connector-curvature="0"
         d="M 401,88.2974 V 37.003 h 159.376 v 51.2944"
         id="path63370" />
    </clipPath>
    <clipPath
       clipPathUnits="userSpaceOnUse"
       id="clipPath63360-4">
      <path
         inkscape:connector-curvature="0"
         d="M 401,88.301 H 560.468 V 36.977 H 401"
         id="path63362-0" />
    </clipPath>
    <clipPath
       clipPathUnits="userSpaceOnUse"
       id="clipPath63368-9">
      <path
         inkscape:connector-curvature="0"
         d="M 401,88.2974 V 37.003 h 159.376 v 51.2944"
         id="path63370-4" />
    </clipPath>
    <clipPath
       clipPathUnits="userSpaceOnUse"
       id="clipPath63960">
      <path
         inkscape:connector-curvature="0"
         d="m 140.4,208.404 h 217.811 v 34.463 H 140.4 Z"
         id="path63962" />
    </clipPath>
    <clipPath
       clipPathUnits="userSpaceOnUse"
       id="clipPath64439">
      <path
         inkscape:connector-curvature="0"
         d="M 0,0 H 623.622 V 538.583 H 0 Z"
         id="path64441" />
    </clipPath>
  </defs>
  <sodipodi:namedview
     id="base"
     pagecolor="#ffffff"
     bordercolor="#666666"
     borderopacity="1.0"
     inkscape:pageopacity="0.0"
     inkscape:pageshadow="2"
     inkscape:zoom="0.35"
     inkscape:cx="726.56303"
     inkscape:cy="-146.08171"
     inkscape:document-units="px"
     inkscape:current-layer="g65983"
     showgrid="false"
     fit-margin-left="0.5"
     fit-margin-bottom="0.5"
     fit-margin-top="0.5"
     fit-margin-right="0.5"
     inkscape:window-width="1088"
     inkscape:window-height="856"
     inkscape:window-x="832"
     inkscape:window-y="0"
     inkscape:window-maximized="0" />
  <metadata
     id="metadata7">
    <rdf:RDF>
      <cc:Work
         rdf:about="">
        <dc:format>image/svg+xml</dc:format>
        <dc:type
           rdf:resource="http://purl.org/dc/dcmitype/StillImage" />
        <dc:title></dc:title>
      </cc:Work>
    </rdf:RDF>
  </metadata>
  <g
     inkscape:label="Layer 1"
     inkscape:groupmode="layer"
     id="layer1"
     transform="translate(-1802.674,1284.6525)">
    <g
       id="g65983"
       transform="matrix(3.0867258,0,0,-3.0867258,1061.6287,1272.4026)">
      <path
         id="path64649"
         style="fill:#f4bfd9;fill-opacity:1;fill-rule:nonzero;stroke:none"
         d="m 252.903,722.548 c 0.584,0.984 0.91,2.033 0.91,3.021 0,0.283 -0.027,0.559 -0.076,0.828 -0.22,1.146 -0.91,2.138 -1.995,2.86 -2.078,1.385 -3.935,0.591 -4.977,-0.615 -0.759,-0.874 -1.23,-2.102 -1.23,-3.346 0,-1.059 0.339,-2.128 1.13,-3.009 0,0 0.087,-0.085 0.132,-0.13 -1.305,-0.091 -2.747,0.37 -3.422,1.988 -0.26,0.619 -0.748,1.014 -1.343,1.086 -0.577,0.067 -1.169,-0.189 -1.508,-0.653 -0.342,-0.469 -0.38,-1.085 -0.106,-1.687 0.83,-1.82 2.34,-3.127 4.248,-3.682 1.954,-0.567 4.076,-0.249 5.848,0.865 1.447,-0.363 2.955,-0.347 4.335,-0.015 0.149,0.956 0.303,1.912 0.464,2.869 -0.765,-0.269 -1.592,-0.399 -2.41,-0.38 z m -2.38,1.841 c -0.186,-0.326 -0.471,-0.627 -0.777,-0.917 -0.63,0.384 -1.03,0.818 -1.107,1.31 -0.006,0.037 -0.01,0.076 -0.01,0.121 0,0.347 0.175,0.906 0.482,1.317 0.174,0.232 0.359,0.372 0.518,0.391 0.3,0.039 0.645,-0.161 0.876,-0.508 0.172,-0.258 0.259,-0.551 0.259,-0.85 0,-0.291 -0.081,-0.586 -0.241,-0.864"
         inkscape:connector-curvature="0" />
      <path
         id="path64651"
         style="fill:#f4bfd9;fill-opacity:1;fill-rule:nonzero;stroke:none"
         d="m 323.008,743.993 3.333,-1.367 0.321,-0.146 c 0,0 0.112,-0.051 0.188,-0.084 0.011,-0.005 0.021,-0.01 0.031,-0.015 0,0 6.457,-2.981 6.465,-2.987 0.028,-0.01 0.052,-0.012 0.08,-0.024 0.016,-0.026 0.032,-0.054 0.051,-0.08 l 0.253,-0.446 0.539,-1.655 c 0.174,-0.612 0.352,-1.246 0.617,-1.85 0.279,-0.634 0.891,-0.899 1.559,-0.675 0.563,0.188 1.079,0.723 1.079,1.402 0,0.105 -0.01,0.211 -0.037,0.319 -0.112,0.49 -0.269,1.01 -0.471,1.592 l 2.283,-1.89 0.602,-0.513 c 0.739,-0.627 1.576,-0.408 2.037,0.064 0.452,0.462 0.651,1.283 0.018,2 -1.213,1.378 -2.73,2.423 -4.432,3.498 0.321,0.101 0.64,0.19 0.952,0.257 l 1.475,0.183 1.341,0.156 c 0.794,0.141 1.141,0.9 1.128,1.543 -0.015,0.753 -0.472,1.319 -1.14,1.411 -1.877,0.262 -4.522,-0.691 -6.311,-1.752 -0.162,-0.095 -0.314,-0.191 -0.454,-0.285 -2.049,1.094 -4.191,2.1 -6.358,2.984 -0.002,0 -0.005,0 -0.008,10e-4 -0.002,0.002 -0.005,0.004 -0.01,0.006 -3.318,1.352 -6.422,2.302 -9.247,2.836 0.578,-1.134 1.113,-2.292 1.613,-3.471 0.837,-0.352 1.676,-0.686 2.503,-1.012"
         inkscape:connector-curvature="0" />
      <path
         id="path64653"
         style="fill:#231f20;fill-opacity:1;fill-rule:nonzero;stroke:none"
         d="m 307.063,694.548 c -0.969,-0.52 -0.62,-1.909 0.094,-2.453 0.181,-0.138 0.385,-0.226 0.599,-0.224 2.944,0.002 5.871,0.405 8.924,0.746 1.049,0.116 2.33,0.227 3.587,0.457 1.491,0.272 2.946,0.714 3.938,1.548 1.143,0.957 0.846,2.824 -0.543,3.375 -2.253,0.888 -5.577,-0.219 -7.83,-0.815 -1.848,-0.492 -3.656,-1.022 -5.45,-1.569 -1.028,-0.314 -2.053,-0.634 -3.074,-0.96 -0.09,-0.029 -0.172,-0.064 -0.245,-0.105"
         inkscape:connector-curvature="0" />
      <path
         id="path64655"
         style="fill:#f4bfd9;fill-opacity:1;fill-rule:nonzero;stroke:none"
         d="m 305.703,704.341 c 0.004,-0.018 0.003,-0.034 0.005,-0.052 0.398,-3.263 0.881,-6.527 1.347,-9.685 l 0.008,-0.056 c 0.073,0.041 0.155,0.076 0.245,0.105 1.021,0.326 2.046,0.646 3.074,0.96 -0.338,2.173 -0.599,4.417 -0.848,6.601 0,0 -0.25,2.13 -0.302,2.569 -0.003,0.018 -0.002,0.033 -0.004,0.049 -0.113,0.927 -0.233,1.867 -0.364,2.814 -1.176,-0.005 -2.35,-0.01 -3.525,-0.01 0.104,-1.048 0.226,-2.142 0.364,-3.295"
         inkscape:connector-curvature="0" />
      <path
         id="path64657"
         style="fill:#231f20;fill-opacity:1;fill-rule:nonzero;stroke:none"
         d="m 269.813,695.479 c -1.288,-0.19 -1.257,-2.16 -0.413,-2.677 0.049,-0.032 0.1,-0.058 0.154,-0.077 2.769,-1 5.659,-1.619 8.645,-2.336 1.624,-0.39 3.789,-1 5.712,-0.993 0.731,0.001 1.429,0.088 2.046,0.316 1.4,0.511 1.757,2.368 0.638,3.357 -1.815,1.605 -5.318,1.696 -7.639,1.9 -1.905,0.168 -3.787,0.286 -5.659,0.38 -1.074,0.054 -2.147,0.102 -3.217,0.144 -0.096,0.004 -0.183,-0.002 -0.267,-0.014"
         inkscape:connector-curvature="0" />
      <path
         id="path64659"
         style="fill:#f4bfd9;fill-opacity:1;fill-rule:nonzero;stroke:none"
         d="m 271.872,705.156 c -0.006,-0.019 -0.013,-0.036 -0.016,-0.057 -0.733,-3.183 -1.387,-6.397 -2.019,-9.508 l -0.024,-0.112 c 0.084,0.012 0.171,0.018 0.267,0.014 1.07,-0.042 2.143,-0.09 3.217,-0.144 0.423,2.16 0.941,4.361 1.448,6.499 0,0 0.496,2.096 0.593,2.519 0.003,0.015 0.009,0.028 0.012,0.044 0.255,1.105 0.505,2.236 0.737,3.381 -1.187,0.03 -2.375,0.058 -3.562,0.089 -0.217,-0.871 -0.434,-1.775 -0.653,-2.725"
         inkscape:connector-curvature="0" />
      <path
         inkscape:connector-curvature="0"
         id="path64661"
         style="fill:#f1635d;fill-opacity:1;fill-rule:nonzero;stroke:none"
         d="m 255.13625,709.713 c 23.72712,-0.46442 47.60073,-1.53249 71.3185,-0.19637 -1.94081,14.0584 -3.90448,29.11733 -10.94666,41.62038 -1.00469,1.78081 -2.18601,3.42447 -3.50032,4.94969 -1.31638,-1.05248 -2.71484,-2.00419 -4.1798,-2.84576 -1.77977,-1.02131 -3.64889,-1.88782 -5.55437,-2.5964 -0.36884,-0.13819 -0.73871,-0.26806 -1.11067,-0.39481 -2.79589,-0.94547 -5.72476,-1.60315 -8.69727,-1.93666 -3.9876,-0.44987 -8.04896,-0.31688 -11.96382,0.47585 -2.96109,0.60469 -5.83594,1.58548 -8.53104,2.98083 -1.39119,0.72105 -2.6681,1.54704 -3.8598,2.44679 -0.72105,-0.99222 -1.41405,-2.01146 -2.05094,-3.07953 -7.22297,-12.15083 -9.02768,-27.57237 -10.92381,-41.42401" />
      <path
         id="path64663"
         style="fill:#ee3424;fill-opacity:1;fill-rule:nonzero;stroke:none"
         d="m 311.212,755.201 c 1.265,-1.468 2.402,-3.05 3.369,-4.764 6.778,-12.034 8.668,-26.528 10.536,-40.059 -22.828,-1.286 -45.806,-0.258 -68.643,0.189 1.825,13.332 3.562,28.175 10.514,39.87 0.613,1.028 1.28,2.009 1.974,2.964 -0.72,0.543 -1.413,1.109 -2.057,1.715 -0.031,0.028 -0.061,0.06 -0.093,0.09 -0.064,-0.087 -0.135,-0.165 -0.201,-0.252 -0.551,-0.748 -1.071,-1.521 -1.556,-2.314 -0.817,-1.335 -1.555,-2.708 -2.248,-4.105 0.049,0.009 0.099,0.02 0.147,0.028 h 10e-4 c 0.701,0.122 1.265,-0.36 1.44,-0.877 0.18,-0.536 -0.04,-1.058 -0.559,-1.327 -0.843,-0.436 -1.711,-0.831 -2.589,-1.206 -2.95,-7.016 -4.662,-14.622 -5.934,-22.225 -0.161,-0.957 -0.315,-1.913 -0.464,-2.869 -0.523,-3.381 -0.982,-6.746 -1.443,-10.044 -0.181,-1.305 1.147,-2.093 2.066,-1.824 0.162,-0.081 0.351,-0.132 0.576,-0.126 5.491,0.073 10.983,-0.044 16.477,-0.184 1.187,-0.031 2.375,-0.059 3.562,-0.089 5.554,-0.142 11.108,-0.268 16.664,-0.201 4.197,0.05 8.392,0.039 12.588,0.045 1.175,0 2.349,0.005 3.525,0.01 5.768,0.03 11.537,0.135 17.303,0.529 0.916,-0.212 2.17,0.568 1.993,1.84 -1.587,11.381 -3.034,24.065 -7.655,34.99 -0.5,1.179 -1.035,2.337 -1.613,3.471 -0.726,1.428 -1.514,2.821 -2.381,4.164 -0.991,1.541 -2.086,2.989 -3.259,4.36 -0.554,-0.539 -1.127,-1.057 -1.723,-1.55 -0.104,-0.084 -0.212,-0.164 -0.317,-0.249"
         inkscape:connector-curvature="0" />
      <path
         id="path64665"
         style="fill:#f4bfd9;fill-opacity:1;fill-rule:nonzero;stroke:none"
         d="m 331.267,801.916 c 3.184,3.252 2.012,8.327 -0.456,11.658 -3.412,4.608 -8.069,5.712 -13.501,5.25 -0.067,-0.094 -0.148,-0.181 -0.258,-0.257 -4.267,-2.984 -0.944,-11.005 1.28,-14.23 2.944,-4.27 8.646,-6.809 12.935,-2.421 z m -4.243,10.842 c 2.922,0.357 2.955,-5.177 -0.35,-4.315 -2.137,0.557 -1.785,4.055 0.35,4.315 z m -6.19,-1.597 c 2.922,0.358 2.955,-5.177 -0.35,-4.315 -2.134,0.557 -1.784,4.056 0.35,4.315"
         inkscape:connector-curvature="0" />
      <path
         inkscape:connector-curvature="0"
         id="path64675"
         style="fill:#f5a2c6;fill-opacity:1;fill-rule:nonzero;stroke:none"
         d="m 277.62806,767.52784 c 2.83903,1.00135 4.66421,3.54285 5.63181,6.29437 1.79393,5.11801 0.38004,10.43853 -4.30918,13.37882 -3.5366,2.21647 -8.93213,3.14782 -12.58124,0.65257 -1.76517,-1.20512 -2.78528,-3.08156 -3.22157,-5.17426 -0.75382,-3.63536 0.25878,-7.93454 2.21772,-10.52479 2.71527,-3.59036 7.76077,-6.21062 12.26246,-4.62671" />
      <path
         id="path64667"
         style="fill:#f4bfd9;fill-opacity:1;fill-rule:nonzero;stroke:none"
         d="m 268.95281,755.51705 c 1.719,-1.687 4.07611,-2.78489 6.39011,-3.91589 1.941,-0.949 5.14403,-2.01111 7.24903,-2.50611 3.725,-0.878 6.82108,-0.49048 10.65008,-0.0725 2.661,0.287 4.47408,1.2151 6.97408,2.0601 0.375,0.128 2.94735,0.83852 3.31835,0.97852 1.645,0.617 2.25768,0.90919 3.85068,1.80319 1.262,0.71 2.25659,2.08651 3.40959,2.96951 1.32,1.015 2.546,2.2597 3.62,3.5047 1.077,1.245 1.65789,1.79508 2.38489,3.27008 0.257,0.525 0.72341,2.22303 0.92741,2.77803 0.738,1.987 1.3294,4.66722 1.3854,6.63022 0.064,2.27 -0.85851,4.27959 -1.49851,6.46359 l -2.92533,7.25306 c 4.623,2.359 11.03506,7.19684 14.82106,10.82484 -4.825,-0.8 -10.16762,1.89029 -12.76262,6.71529 -1.997,3.714 -3.34038,11.19422 -0.49638,15.07422 -6.581,-0.715 -17.03849,-2.45381 -23.51349,-4.47781 l 3.23968,0.92362 c -1.708,-0.533 -8.52809,-2.57292 -8.52809,-2.57292 -6.16199,-2.84833 -10.42581,-5.39726 -14.75026,-8.51219 -1.438,-1.153 -6.05795,-5.35684 -6.05795,-5.35684 0,0 -3.31236,-5.65436 -4.94105,-9.55027 -1.363,-3.83 -2.31911,-8.35781 -2.14911,-12.41981 0.09,-2.14 0.4757,-6.57205 0.9407,-8.62705 0.549,-2.438 2.06122,-4.4369 3.16422,-6.6149 1.219,-2.407 3.36451,-4.7267 5.29751,-6.6227 z M 295.941,811.99 c 0.86,0.921 1.913,1.572 3.05,1.9 1.316,0.38 2.743,0.324 4.096,-0.248 2.274,-0.961 3.897,-3.174 3.92,-5.671 0.032,-3.813 -3.703,-7.025 -7.517,-6.711 -5.138,0.421 -6.828,7.212 -3.549,10.73 z m -15.446,-9.547 c 0.356,0.939 0.867,1.85 1.506,2.622 0.567,0.685 1.224,1.318 1.951,1.808 1.392,0.935 3.029,1.348 4.733,0.609 1.962,-0.85 3.25,-2.858 3.79,-4.859 0.87,-3.202 -0.203,-6.696 -3.346,-8.156 -3.264,-1.518 -7.039,-0.359 -8.513,2.996 -0.698,1.585 -0.734,3.363 -0.121,4.98 z m -13.511,-29.079 c -1.567,2.072 -2.377,5.511 -1.774,8.419 0.349,1.674 1.165,3.175 2.577,4.139 2.919,1.996 7.235,1.251 10.064,-0.522 3.751,-2.352 4.882,-6.608 3.447,-10.702 -0.774,-2.201 -2.234,-4.234 -4.505,-5.035 -3.601,-1.267 -7.637,0.829 -9.809,3.701"
         inkscape:connector-curvature="0"
         sodipodi:nodetypes="cccccccccccccccccccccccccsccccccccccccccccccccccc" />
      <path
         id="path64669"
         style="fill:#c0739c;fill-opacity:1;fill-rule:nonzero;stroke:none"
         d="m 320.484,806.846 c 3.305,-0.862 3.272,4.673 0.35,4.315 -2.134,-0.259 -2.484,-3.758 -0.35,-4.315"
         inkscape:connector-curvature="0" />
      <path
         id="path64671"
         style="fill:#c0739c;fill-opacity:1;fill-rule:nonzero;stroke:none"
         d="m 326.674,808.443 c 3.305,-0.862 3.272,4.672 0.35,4.315 -2.135,-0.26 -2.487,-3.758 -0.35,-4.315"
         inkscape:connector-curvature="0" />
      <path
         id="path64673"
         style="fill:#eb99c2;fill-opacity:1;fill-rule:nonzero;stroke:none"
         d="m 266.812,755.206 c 0.032,-0.03 0.062,-0.062 0.093,-0.09 0.644,-0.606 1.337,-1.172 2.057,-1.715 1.147,-0.866 2.376,-1.661 3.715,-2.355 2.594,-1.343 5.361,-2.287 8.211,-2.869 3.768,-0.763 7.677,-0.891 11.515,-0.458 2.861,0.321 5.68,0.954 8.371,1.864 0.358,0.122 0.714,0.247 1.069,0.38 1.834,0.682 3.633,1.516 5.346,2.499 1.41,0.81 2.756,1.726 4.023,2.739 0.105,0.085 0.213,0.165 0.317,0.249 0.596,0.493 1.169,1.011 1.723,1.55 0.718,0.696 1.401,1.428 2.032,2.2 0.841,1.03 1.6,2.127 2.262,3.292 0.218,0.386 0.427,0.778 0.625,1.18 0.318,0.646 0.595,1.297 0.831,1.953 0.75,2.065 1.117,4.176 1.161,6.284 0.049,2.432 -0.329,4.863 -1.037,7.226 -0.706,2.363 -1.742,4.658 -3.01,6.82 7.028,2.641 13.412,8.894 17.669,14.447 0.162,0.213 0.222,0.433 0.211,0.646 2.645,3.494 2.014,8.662 -0.065,12.514 -3.101,5.749 -10.544,9.72 -17.023,7.733 -0.137,-0.042 -0.254,-0.107 -0.357,-0.182 -7.491,-0.836 -15.102,-2.137 -22.398,-4.335 -0.005,-0.002 -0.01,-0.004 -0.014,-0.005 -0.35,-0.106 -0.699,-0.216 -1.047,-0.324 -0.595,-0.188 -1.191,-0.381 -1.782,-0.581 -0.315,-0.106 -0.63,-0.218 -0.944,-0.329 -0.599,-0.212 -1.197,-0.427 -1.79,-0.652 0.049,0.603 0.073,1.202 0.08,1.782 0.019,1.493 -0.185,3.016 -0.612,4.448 -0.703,2.353 -2.121,4.437 -4.142,5.841 -3.33,2.311 -8.21,1.555 -9.377,-2.701 -0.572,-2.087 -0.094,-4.372 0.616,-6.362 0.943,-2.649 2.402,-5.087 4.097,-7.332 -0.481,-0.269 -0.96,-0.545 -1.434,-0.828 -0.059,-0.035 -0.117,-0.072 -0.176,-0.106 -0.783,-0.469 -1.559,-0.957 -2.321,-1.464 -0.023,-0.016 -0.048,-0.032 -0.07,-0.048 -0.198,-0.131 -0.394,-0.267 -0.59,-0.401 -0.5,1.28 -1.146,2.525 -1.783,3.641 -0.894,1.564 -2.03,3.038 -3.396,4.216 -2.022,1.746 -4.693,2.859 -7.374,2.224 -2.239,-0.529 -3.887,-2.487 -4.214,-4.731 -0.469,-3.231 1.158,-6.219 3.127,-8.654 1.407,-1.741 3.14,-3.24 4.984,-4.55 -2.723,-3.358 -4.864,-7.181 -6.224,-11.313 -1.195,-3.623 -1.782,-7.439 -1.732,-11.255 0.032,-2.41 0.28,-4.785 0.754,-7.08 0.127,-0.621 0.277,-1.235 0.441,-1.846 0.561,-2.111 1.32,-4.143 2.295,-6.05 1.349,-2.641 3.105,-5.044 5.287,-7.112 z m 50.24,63.361 c 0.11,0.076 0.191,0.163 0.258,0.257 5.432,0.462 10.089,-0.642 13.501,-5.25 2.468,-3.331 3.64,-8.406 0.456,-11.658 -4.289,-4.388 -9.991,-1.849 -12.935,2.421 -2.224,3.225 -5.547,11.246 -1.28,14.23 z m -38.55,6.929 c -0.002,0 -0.004,0 -0.006,0 -0.274,-0.108 0.186,0.096 0.006,0 z m -0.529,-0.306 c -0.002,-0.002 -0.004,-0.004 -0.006,-0.006 -0.151,-0.101 0.227,0.195 0.006,0.006 z m -1.002,-4.732 c -0.21,1.02 -0.226,2.178 -0.027,3.015 0.191,0.803 0.39,1.168 1.025,1.713 0.011,0.008 0.018,0.012 0.034,0.024 0.073,0.05 0.152,0.098 0.229,0.143 0.078,0.047 0.158,0.087 0.238,0.128 0.018,0.009 0.024,0.011 0.035,0.018 0.165,0.065 0.342,0.112 0.515,0.156 0.091,0.021 0.181,0.038 0.27,0.054 10e-4,0 0.003,0 0.003,0 -0.061,-0.002 0.023,0.011 0.052,0.013 0.017,0.003 0.015,-0.002 -0.052,-0.013 0.023,0 0.056,0.002 0.122,0.007 0.191,0.015 0.382,0.011 0.575,0.003 0.147,-0.006 0.193,-0.005 0.208,-0.003 0,-0.003 0.023,-0.012 0.138,-0.03 0.201,-0.036 0.4,-0.086 0.596,-0.142 0.102,-0.028 0.521,-0.184 0.539,-0.183 -0.018,0.007 -0.031,0.015 -0.047,0.023 0.039,-0.018 0.049,-0.023 0.047,-0.023 1.795,-0.789 3.045,-2.284 3.764,-4.068 0.527,-1.3 0.761,-2.667 0.806,-4.057 0.039,-1.211 -0.165,-2.359 -0.361,-3.516 -1.551,-0.663 -3.077,-1.382 -4.574,-2.156 -1.793,2.755 -3.47,5.679 -4.135,8.894 z m -16.229,-10.981 c -0.405,1.113 -0.564,2.34 -0.362,3.302 0.182,0.851 0.677,1.6 1.147,1.952 0.81,0.603 1.387,0.709 2.37,0.676 0.94,-0.034 2.06,-0.506 3.017,-1.134 2.822,-1.855 4.327,-5.096 5.444,-8.217 -1.805,-1.389 -3.488,-2.933 -5.013,-4.618 -2.752,2.169 -5.411,4.766 -6.603,8.039 z m 0.559,-38.524 c -0.465,2.055 -0.735,4.173 -0.825,6.313 -0.17,4.062 0.439,8.127 1.802,11.957 0.712,1.995 1.664,3.877 2.795,5.646 0.001,10e-4 0.002,0.002 0.005,0.004 0.318,0.499 0.653,0.989 0.999,1.469 0.023,0.031 0.046,0.06 0.067,0.09 0.316,0.431 0.64,0.855 0.975,1.271 0.05,0.061 0.097,0.122 0.146,0.182 0.2,0.244 0.409,0.48 0.616,0.72 0.139,-0.086 0.277,-0.177 0.417,-0.262 1.073,-0.653 1.936,0.94 0.964,1.648 -0.025,0.019 -0.05,0.037 -0.076,0.055 1.28,1.337 2.653,2.584 4.091,3.737 0.669,-0.784 2.326,-0.282 2.19,0.859 -0.027,0.236 -0.071,0.475 -0.117,0.715 0.643,0.459 1.293,0.909 1.956,1.341 0.191,0.123 0.385,0.237 0.577,0.358 0.551,0.349 1.098,0.696 1.661,1.027 0.188,0.11 0.38,0.212 0.57,0.32 0.194,0.112 0.392,0.219 0.59,0.329 0.036,-0.044 0.072,-0.09 0.109,-0.134 0.671,-0.789 1.971,0.17 1.556,1.038 1.042,0.542 2.107,1.051 3.185,1.539 0.447,-0.742 1.793,-0.93 2.193,-0.015 0.156,0.361 0.281,0.739 0.391,1.126 0.364,0.148 0.726,0.304 1.095,0.447 0.023,0.007 0.045,0.016 0.067,0.025 1.661,0.643 3.349,1.23 5.057,1.763 v 0.002 c 6.475,2.024 13.23,3.3 19.811,4.015 -2.844,-3.88 -0.575,-10.666 1.422,-14.38 2.595,-4.825 7.012,-7.631 11.837,-6.831 -3.786,-3.628 -7.884,-6.846 -12.507,-9.205 -0.097,0.129 -0.2,0.249 -0.317,0.349 -0.968,0.83 -2.181,-0.189 -1.696,-1.303 -0.447,-0.199 -0.897,-0.39 -1.354,-0.571 -1.086,-0.428 -0.669,-1.907 0.477,-1.732 0.685,0.106 1.366,0.254 2.043,0.435 1.137,-2.054 2.084,-4.196 2.731,-6.398 0.64,-2.184 0.984,-4.425 0.92,-6.695 -0.056,-1.963 -0.416,-3.949 -1.154,-5.936 -0.204,-0.555 -0.439,-1.096 -0.696,-1.621 -0.727,-1.475 -1.655,-2.835 -2.732,-4.08 -1.074,-1.245 -2.3,-2.374 -3.62,-3.389 -1.153,-0.883 -2.379,-1.681 -3.641,-2.391 -1.593,-0.894 -3.247,-1.649 -4.892,-2.266 -0.371,-0.14 -0.745,-0.272 -1.12,-0.4 -2.5,-0.845 -5.123,-1.426 -7.784,-1.713 -3.829,-0.418 -7.735,-0.227 -11.46,0.651 -2.105,0.495 -4.151,1.21 -6.092,2.159 -2.314,1.131 -4.324,2.576 -6.043,4.263 -1.933,1.896 -3.5,4.1 -4.719,6.507 -1.103,2.178 -1.921,4.524 -2.47,6.962"
         inkscape:connector-curvature="0" />
      <path
         id="path64677"
         style="fill:#ffffff;fill-opacity:1;fill-rule:nonzero;stroke:none"
         d="m 299.22,803.722 c 2.395,-0.342 5.49,1.639 5.264,4.249 -0.198,2.296 -2.078,3.413 -4.205,3.574 -1.181,0.09 -2.067,-0.152 -2.869,-1.109 -0.694,-0.831 -1,-1.932 -0.94,-3.004 0.093,-1.646 0.948,-3.452 2.75,-3.71 z m -1.744,4.453 c 0.286,1.567 2.555,1.893 3.524,0.759 1.052,-1.236 0.584,-2.986 -1.094,-3.276 -1.299,-0.223 -2.662,1.253 -2.43,2.517"
         inkscape:connector-curvature="0" />
      <path
         id="path64679"
         style="fill:#ffffff;fill-opacity:1;fill-rule:nonzero;stroke:none"
         d="m 287.811,796.353 c 2.504,1.008 3.522,3.726 2.321,6.181 -0.564,1.159 -1.489,2.349 -2.811,2.648 -1.122,0.256 -2.814,-0.321 -3.586,-1.178 -0.432,-0.481 -0.805,-1.019 -1.081,-1.606 -0.557,-1.185 -0.672,-2.531 -0.196,-3.764 0.856,-2.216 3.147,-3.166 5.353,-2.281 z m -4.343,4.73 c 0.285,1.565 2.555,1.894 3.523,0.76 1.052,-1.236 0.585,-2.986 -1.096,-3.276 -1.296,-0.224 -2.659,1.252 -2.427,2.516"
         inkscape:connector-curvature="0" />
      <path
         id="path64681"
         style="fill:#231f20;fill-opacity:1;fill-rule:nonzero;stroke:none"
         d="m 285.895,798.567 c 1.681,0.29 2.148,2.04 1.096,3.276 -0.968,1.134 -3.238,0.805 -3.523,-0.76 -0.232,-1.264 1.131,-2.74 2.427,-2.516"
         inkscape:connector-curvature="0" />
      <path
         id="path64683"
         style="fill:#231f20;fill-opacity:1;fill-rule:nonzero;stroke:none"
         d="m 299.906,805.658 c 1.678,0.29 2.146,2.04 1.094,3.276 -0.969,1.134 -3.238,0.808 -3.524,-0.759 -0.232,-1.264 1.131,-2.74 2.43,-2.517"
         inkscape:connector-curvature="0" />
      <path
         id="path64685"
         style="fill:#eb99c2;fill-opacity:1;fill-rule:nonzero;stroke:none"
         d="m 289.129,794.467 c 3.143,1.46 4.216,4.954 3.346,8.156 -0.54,2.001 -1.828,4.009 -3.79,4.859 -1.704,0.739 -3.341,0.326 -4.733,-0.609 -0.727,-0.49 -1.384,-1.123 -1.951,-1.808 -0.639,-0.772 -1.15,-1.683 -1.506,-2.622 -0.613,-1.617 -0.577,-3.395 0.121,-4.98 1.474,-3.355 5.249,-4.514 8.513,-2.996 z m -6.475,7.931 c 0.276,0.587 0.649,1.125 1.081,1.606 0.772,0.857 2.464,1.434 3.586,1.178 1.322,-0.299 2.247,-1.489 2.811,-2.648 1.201,-2.455 0.183,-5.173 -2.321,-6.181 -2.206,-0.885 -4.497,0.065 -5.353,2.281 -0.476,1.233 -0.361,2.579 0.196,3.764"
         inkscape:connector-curvature="0" />
      <path
         id="path64687"
         style="fill:#eb99c2;fill-opacity:1;fill-rule:nonzero;stroke:none"
         d="m 299.49,801.26 c 3.814,-0.314 7.549,2.898 7.517,6.711 -0.023,2.497 -1.646,4.71 -3.92,5.671 -1.353,0.572 -2.78,0.628 -4.096,0.248 -1.137,-0.328 -2.19,-0.979 -3.05,-1.9 -3.279,-3.518 -1.589,-10.309 3.549,-10.73 z m -2.08,9.176 c 0.802,0.957 1.688,1.199 2.869,1.109 2.127,-0.161 4.007,-1.278 4.205,-3.574 0.226,-2.61 -2.869,-4.591 -5.264,-4.249 -1.802,0.258 -2.657,2.064 -2.75,3.71 -0.06,1.072 0.246,2.173 0.94,3.004"
         inkscape:connector-curvature="0" />
      <path
         id="path64689"
         style="fill:#ef5091;fill-opacity:1;fill-rule:nonzero;stroke:none"
         d="m 300.971,767.168 c -5.086,-1.176 -9.358,0.247 -12.616,4.267 -0.865,1.068 -2.61,-0.151 -1.972,-1.349 5.906,-11.087 26.343,-5.224 24.718,7.499 -0.129,1.002 -1.792,0.893 -1.777,-0.119 0.068,-5.145 -3.347,-9.143 -8.353,-10.298"
         inkscape:connector-curvature="0" />
      <path
         id="path64691"
         style="fill:#f4bfd9;fill-opacity:1;fill-rule:nonzero;stroke:none"
         d="m 285.68,813.72 c 0.196,1.157 0.4,2.305 0.361,3.516 -0.045,1.39 -0.279,2.757 -0.806,4.057 -0.719,1.784 -1.969,3.279 -3.764,4.068 v -10e-4 10e-4 c -0.018,-10e-4 -0.437,0.155 -0.539,0.183 -0.196,0.056 -0.395,0.106 -0.596,0.142 -0.115,0.018 -0.138,0.027 -0.138,0.03 -0.015,-0.002 -0.061,-0.003 -0.208,0.003 -0.193,0.008 -0.384,0.012 -0.575,-0.003 -0.066,-0.005 -0.099,-0.007 -0.122,-0.007 0,0 -0.002,0 -0.003,0 -0.089,-0.016 -0.179,-0.033 -0.27,-0.054 -0.173,-0.044 -0.35,-0.091 -0.515,-0.156 -0.011,-0.007 -0.017,-0.009 -0.035,-0.018 -0.08,-0.041 -0.16,-0.081 -0.238,-0.128 -0.077,-0.045 -0.156,-0.093 -0.229,-0.143 -0.016,-0.012 -0.023,-0.016 -0.034,-0.024 -0.635,-0.545 -0.834,-0.91 -1.025,-1.713 -0.199,-0.837 -0.183,-1.995 0.027,-3.015 0.665,-3.215 2.342,-6.139 4.135,-8.894 1.497,0.774 3.023,1.493 4.574,2.156"
         inkscape:connector-curvature="0" />
      <path
         id="path64693"
         style="fill:#908e73;fill-opacity:1;fill-rule:nonzero;stroke:none"
         d="m 281.471,825.361 c 0.002,0 -0.008,0.005 -0.047,0.023 0.016,-0.008 0.029,-0.016 0.047,-0.023 v -10e-4 10e-4"
         inkscape:connector-curvature="0" />
      <path
         id="path64695"
         style="fill:#908e73;fill-opacity:1;fill-rule:nonzero;stroke:none"
         d="m 277.973,825.19 c 0.221,0.189 -0.157,-0.107 -0.006,-0.006 0.002,0.002 0.004,0.004 0.006,0.006"
         inkscape:connector-curvature="0" />
      <path
         id="path64697"
         style="fill:#908e73;fill-opacity:1;fill-rule:nonzero;stroke:none"
         d="m 279.293,825.709 c 0.067,0.011 0.069,0.016 0.052,0.013 -0.029,-0.002 -0.113,-0.015 -0.052,-0.013"
         inkscape:connector-curvature="0" />
      <path
         id="path64699"
         style="fill:#908e73;fill-opacity:1;fill-rule:nonzero;stroke:none"
         d="m 278.502,825.496 c 0.18,0.096 -0.28,-0.108 -0.006,0 0.002,0 0.004,0 0.006,0"
         inkscape:connector-curvature="0" />
      <path
         id="path64701"
         style="fill:#f4bfd9;fill-opacity:1;fill-rule:nonzero;stroke:none"
         d="m 272.358,806.056 c -1.117,3.121 -2.622,6.362 -5.444,8.217 -0.957,0.628 -2.077,1.1 -3.017,1.134 -0.983,0.033 -1.56,-0.073 -2.37,-0.676 -0.47,-0.352 -0.965,-1.101 -1.147,-1.952 -0.202,-0.962 -0.043,-2.189 0.362,-3.302 1.192,-3.273 3.851,-5.87 6.603,-8.039 1.525,1.685 3.208,3.229 5.013,4.618"
         inkscape:connector-curvature="0" />
      <path
         id="path64703"
         style="fill:#f4bfd9;fill-opacity:1;fill-rule:nonzero;stroke:none"
         d="m 264.395,747.686 c -0.175,0.517 -0.739,0.999 -1.44,0.877 h -10e-4 c -0.048,-0.008 -0.098,-0.019 -0.147,-0.028 -2.899,-0.523 -6.102,-1.492 -9.532,-2.89 -0.003,-0.002 -0.01,-0.002 -0.014,-0.005 -2.199,-0.896 -4.355,-1.91 -6.375,-2.992 -0.141,0.095 -0.291,0.19 -0.455,0.286 -1.789,1.061 -4.436,2.014 -6.313,1.752 -0.666,-0.092 -1.123,-0.658 -1.139,-1.411 -0.014,-0.643 0.335,-1.402 1.128,-1.543 l 1.343,-0.156 1.473,-0.183 c 0.312,-0.067 0.634,-0.156 0.955,-0.257 -1.707,-1.075 -3.22,-2.119 -4.435,-3.498 -0.632,-0.717 -0.434,-1.538 0.02,-2 0.462,-0.472 1.297,-0.691 2.036,-0.064 l 0.604,0.513 c 0,0 1.359,1.126 2.28,1.89 -0.176,-0.5 -0.344,-1.041 -0.472,-1.592 -0.025,-0.108 -0.036,-0.214 -0.036,-0.319 0,-0.679 0.515,-1.214 1.08,-1.402 0.667,-0.224 1.279,0.041 1.557,0.675 0.265,0.601 0.447,1.236 0.617,1.85 l 0.543,1.655 0.25,0.446 c 0.018,0.027 0.036,0.054 0.052,0.082 0.03,0.011 0.056,0.014 0.088,0.028 0,0 6.443,2.976 6.445,2.976 0.003,0.002 0.007,0.004 0.01,0.005 h 0.001 l 0.539,0.245 3.333,1.365 c 0.945,0.374 1.906,0.757 2.857,1.162 0.878,0.375 1.746,0.77 2.589,1.206 0.519,0.269 0.739,0.791 0.559,1.327"
         inkscape:connector-curvature="0" />
    </g>
  </g>
</svg>
