<?xml version="1.0" encoding="utf-8"?>
<!-- Generator: Adobe Illustrator 16.0.0, SVG Export Plug-In . SVG Version: 6.00 Build 0)  -->
<!DOCTYPE svg PUBLIC "-//W3C//DTD SVG 1.1//EN" "http://www.w3.org/Graphics/SVG/1.1/DTD/svg11.dtd">
<svg version="1.1" id="Layer_1" xmlns="http://www.w3.org/2000/svg" xmlns:xlink="http://www.w3.org/1999/xlink" x="0px" y="0px"
	 width="864px" height="864px" viewBox="0 0 864 864" enable-background="new 0 0 864 864" xml:space="preserve">
<path fill-rule="evenodd" clip-rule="evenodd" d="M214.663,167.317c-8.411,3.371-15.434,6.552-22.706,8.989
	c-6.346,2.126-12.667,4.291-19.746,1.328c-9.999-4.186-13.928-17.369-6.724-25.337c6.497-7.186,14.94-11.535,23.907-14.772
	c5.97-2.156,12.131-3.783,17.646-5.474c-3.643-8.786-7.448-17.005-10.481-25.5c-4.707-13.187-4.312-26.436,2.242-38.925
	c9.051-17.247,21.057-32.069,37.377-43.134c10.894-7.386,22.994-10.916,35.963-11.581c23.978-1.229,46.458,5.108,68.572,13.605
	c33.819,12.996,64.115,32.05,93.181,53.301c4.944,3.615,5.508,3.575,8.313-1.946c9.012-17.734,20.604-33.648,34.678-47.608
	c6.452-6.4,13.991-11.719,21.162-17.371c3.248-2.559,6.503-2.592,8.352,1.727c4.507,10.534,9.683,20.875,13.098,31.763
	c10.433,33.266,10.362,67.57,8.178,101.891c-1.51,23.729-8.602,45.726-20.05,66.812c-7.263,13.378-12.268,28.247-16.456,42.967
	c-5.804,20.394-9.871,41.282-14.737,61.945c-0.421,1.79-1.26,3.48-2.049,5.606c1.276,0.304,2.142,0.734,2.972,0.674
	c21.518-1.56,41.383,4.777,60.914,12.699c2.477,1.005,4.902,2.144,7.307,3.314c0.815,0.397,2.133,1.081,2.134,1.636
	c0.016,9.028,8.292,8.5,13.292,10.692c26.976,11.821,52.777,25.687,77.321,41.947c9.864,6.535,14.272,15.995,14.104,27.392
	c-0.224,15.173-1.178,30.334-1.806,45.501c-0.05,1.181-0.007,2.365-0.007,3.548c0.398,0.195,0.797,0.391,1.196,0.585
	c4.764-6.921,9.744-13.704,14.239-20.795c5.816-9.173,10.828-18.877,16.967-27.815c5.358-7.803,12.145-14.331,21.277-18.083
	c9.788-4.021,18.592,0.418,22.171,10.206c4.19,11.458-1.021,21.033-4.844,30.753c-9.314,23.68-27.692,39.43-48.235,53.069
	c-13.056,8.668-27.244,14.987-42.042,19.95c-4.859,1.63-9.955,2.554-15.604,3.966c1.935,4.103,3.731,7.84,5.466,11.605
	c8.729,18.958,15.202,38.665,19.827,59.011c3.77,16.587,8.046,33.063,11.508,49.713c2.69,12.942,4.668,26.045,6.605,39.13
	c2.245,15.155,4.921,30.315,5.9,45.571c1.061,16.514,1.473,33.227,0.142,49.688c-1.228,15.164-5.425,16.184-20.329,20.016
	c-20.74,5.333-42.02,5.439-63.177,3.968c-11.087-0.771-22.143-3.257-32.952-5.997c-3.648-0.925-7.025-4.594-9.555-7.779
	c-2.424-3.052-4.864-4.12-8.434-3.438c-11.609,2.221-23.203,2.493-34.776-0.271c-0.235-0.057-0.556,0.243-1.158,0.53
	c0,9.127,0.472,18.44-0.16,27.676c-0.448,6.547-2.003,13.097-3.759,19.453c-2.256,8.17-8.461,12.428-16.537,13.506
	c-7.353,0.983-14.818,1.087-22.216,1.762c-4.202,0.382-8.355,1.269-12.556,1.672c-2.979,0.287-6.017,0.384-8.996,0.156
	c-14.803-1.132-29.646-1.976-44.376-3.744c-13.407-1.61-16.985-4.776-18.619-21.099c-1.801-17.994-0.442-36.018,4.482-53.582
	c0.542-1.935,1.371-3.936,2.583-5.509c3.168-4.112,4.418-8.804,3.944-13.746c-0.948-9.892-2.171-19.765-3.58-29.603
	c-1.769-12.352-3.757-24.675-5.814-36.983c-0.935-5.591-2.284-11.111-3.408-16.672c-2.071-10.24-7.77-13.791-20.126-13.191
	c0,1.772,0.019,3.584-0.002,5.394c-0.379,32.917-0.565,65.837-1.265,98.747c-0.218,10.233-1.759,20.444-2.826,30.651
	c-0.802,7.681-7.399,14.26-16.412,16.74c-25.202,6.936-50.977,8.787-76.948,8.217c-11.83-0.26-23.662-1.272-35.441-2.462
	c-5.036-0.508-9.052-3.495-10.951-8.548c-5.601-14.914-8.202-30.188-4.452-45.948c4.299-18.063,16.072-31.809,35.345-35.958
	c3.701-0.796,7.458-1.558,11.222-1.772c4.646-0.265,6.997-2.45,7.304-6.965c0.397-5.843,0.731-11.69,1.089-17.536
	c1.5-24.474,3.171-48.938,4.403-73.425c0.445-8.838,1.324-17.525-3.474-26.233c-6.118-11.106-6.119-23.528-3.295-35.971
	c0.925-4.078,0.594-8.509,0.403-12.758c-0.618-13.744,2.201-26.979,5.136-40.282c1.691-7.666,1.932-15.641,3.203-23.415
	c0.423-2.592,1.368-5.731,3.199-7.34c5.438-4.772,5.92-10.256,5.329-17.055c-0.76-8.756-0.136-17.667,0.451-26.475
	c0.13-1.946,2.384-3.964,4.047-5.542c2.375-2.253,3.987-4.35,1.979-7.697c-0.711-1.185-0.984-2.667-1.302-4.05
	c-1.176-5.113-4.432-7.457-9.547-8.421c-10.734-2.023-20.553-6.35-27.634-14.938c-3.542-4.296-6.184-9.45-8.584-14.523
	c-1.278-2.703-2.22-4.736-5.377-5.839c-13.146-4.594-21.399-14.614-27.898-26.324c-6.62-11.928-10.631-24.765-12.448-38.248
	c-1.648-12.229,7.193-22.122,16.685-24.958c5.138-1.536,8.369-4.341,8.467-9.909c0.208-11.831,0.482-23.663,0.439-35.493
	c-0.031-8.859-0.596-17.715-0.776-26.575C205.436,196.792,207.023,182.139,214.663,167.317z M506.693,700.02
	c-1.456-18.172-2.948-36.438-4.358-54.713c-0.288-3.724-2.292-2.797-4.618-2.167c-9.555,2.585-19.111,5.184-28.739,7.475
	c-4.49,1.068-5.396,2.667-4.285,7.93c3.44,16.307,6.704,32.652,9.994,48.992c0.497,2.469,1.522,4.328,4.356,3.737
	c7.682-1.602,15.305-3.481,22.999-5.01C505.644,705.549,508.139,704.423,506.693,700.02z"/>
<g>
	<path fill-rule="evenodd" clip-rule="evenodd" fill="#603913" d="M388.866,165.584c10.005-3.551,19.195-7.345,28.7-10.018
		c7.606-2.139,10.762-6.923,11.777-14.132c3.323-23.602,10.72-45.832,22.413-66.642c11.971-21.306,27.937-39.216,46.158-55.31
		c3.385-2.989,5.241-1.473,6.322,1.546c3.863,10.779,8.307,21.459,10.914,32.557c6.663,28.369,8.033,57.163,4.381,86.129
		c-1.538,12.201-2.239,24.616-5.094,36.507c-2.039,8.489-6.705,16.437-10.781,24.326c-7.968,15.424-14.875,31.258-19.483,48.003
		c-4.796,17.429-9.263,34.949-13.878,52.428c-2.681,10.153-5.359,20.307-8.076,30.451c-0.231,0.865-0.74,1.654-1.649,3.625
		c-2.234-12.747-7.896-22.586-15.851-31.143c-3.653-3.928-7.145-8.166-11.396-11.347c-9.21-6.895-9.736-15.491-7.074-25.666
		c2.227-8.514,3.749-17.267,4.865-26.006c2.189-17.127-1.095-33.403-9.748-48.322c-6.421-11.071-16.359-18.537-27.579-24.372
		C392.296,167.423,390.817,166.622,388.866,165.584z M514.879,96.141c-0.424-0.036-0.848-0.071-1.271-0.107
		c0-6.331,0.329-12.682-0.073-18.987c-0.676-10.575-2.253-21.01-7.748-30.395c-4.875-8.325-12.919-10.104-20.729-4.429
		c-2.278,1.656-4.456,3.584-6.26,5.739c-9.337,11.147-16.976,23.39-23.142,36.561c-7.848,16.765-12.232,34.416-13.223,52.866
		c-0.611,11.387-0.438,22.818,3.537,33.689c5.074,13.878,14.884,23.934,26.987,31.993c10.243,6.82,19.422,3.944,24.596-7.268
		c6.347-13.755,9.778-28.383,11.894-43.131C512.132,133.953,513.145,114.996,514.879,96.141z"/>
	<path fill-rule="evenodd" clip-rule="evenodd" fill="#603913" d="M457.061,709.143c-5.921-5.296-11.845-10.596-18.364-16.428
		c-2.986,7.553-5.535,13.998-8.307,21.009c-5.866-4.464-11.093-8.441-17.086-13.003c-2.277,5.069-4.408,9.812-6.641,14.783
		c-5.361-3.431-10.176-6.915-15.36-9.717c-5.227-2.824-6.849-2.13-10.276,3.12c-2.303-10.911-4.48-21.438-6.753-31.944
		c-2.899-13.396-7.419-26.3-16.568-36.629c-6.853-7.737-5.877-15.423-2.751-23.685c5.495-14.521,16.993-23.342,30.35-29.562
		c11.077-5.158,22.897-7.631,35.363-4.571c8.984,2.205,14.89,7.968,17.825,16.053c5.576,15.366,10.778,30.917,15.083,46.679
		c3.931,14.388,6.409,29.171,9.646,43.753C464.942,696.755,464.616,703.801,457.061,709.143z"/>
	<path fill-rule="evenodd" clip-rule="evenodd" fill="#603913" d="M565.811,507.333c9.288,3.319,18.753,6.22,27.82,10.06
		c12.109,5.129,19.682,15.092,23.436,27.178c6.377,20.532,12.31,41.255,17.179,62.188c4.915,21.133,8.166,42.649,12.473,63.932
		c1.105,5.465,3.083,10.692-0.114,16.007c-0.867,1.44-1.864,2.802-3.21,4.809c-6.294-8.224-12.181-15.919-18.581-24.283
		c-5.17,5.819-5.342,13.924-9.622,19.754c-6.017-2.499-6.017-2.499-13.124,4.28c-4.02-4.332-8.091-8.668-12.102-13.062
		c-2.635-2.886-4.479-2.242-5.983,1.086c-1.138,2.515-2.414,4.968-4.623,7.389c-2.623-13.312-4.966-26.687-7.951-39.917
		c-2.936-13.013-3.568-26.64-9.369-40.414c15.615-30.973,15.804-64.154,2.331-97.839
		C564.849,508.109,565.33,507.722,565.811,507.333z"/>
	<path fill-rule="evenodd" clip-rule="evenodd" fill="#603913" d="M263.705,614.443c14.666,16.135,31.455,26.677,50.519,33.513
		c5.71,2.049,11.933,2.69,17.943,3.868c2.465,0.483,4.597,0.888,4.575,4.205c-0.105,15.97-0.091,31.942-0.154,47.914
		c-0.001,0.409-0.406,0.815-0.417,0.838c-4.119-0.516-8.361-2.189-11.797-1.164c-3.648,1.09-6.531,4.74-9.907,7.396
		c-3.541-6.107-7.949-13.71-12.696-21.9c-4.804,5.907-9,11.065-13.72,16.87c-2.214-4.589-4.046-8.348-5.844-12.123
		c-2.14-4.493-2.902-4.583-5.969-0.936c-1.806,2.148-3.811,4.129-6.098,6.583c-4.943-5.163-7.934-10.95-8.218-17.637
		c-0.253-5.954,0.742-11.949,0.923-17.935c0.379-12.485,0.602-24.975,0.851-37.464C263.765,622.896,263.705,619.318,263.705,614.443
		z"/>
	<path fill-rule="evenodd" clip-rule="evenodd" fill="#603913" d="M555.4,616.355c1.138,2.373,2.368,4.048,2.758,5.898
		c2.426,11.536,4.64,23.116,6.976,34.671c0.812,4.018,1.626,8.046,2.696,11.999c1.519,5.61,0.88,10.772-1.922,15.913
		c-2.247,4.12-3.899,8.563-6.065,13.423c-2.918-4.211-5.518-7.964-8.539-12.325c-2.483,4.137-4.53,7.548-6.946,11.572
		c-3.616-3.929-6.994-7.592-10.366-11.261c-3.599-3.914-4.497-3.908-8.167,0.113c-1.385,1.518-2.474,3.583-4.179,4.459
		c-2.037,1.047-4.813,1.867-6.847,1.292c-1.393-0.395-2.865-3.31-2.931-5.147c-0.48-13.589-0.595-27.19-0.871-40.788
		c-0.155-7.66-0.243-7.78,6.879-10.605c4.069-1.615,8.51-2.366,12.452-4.212c6.493-3.039,12.771-6.554,19.023-10.076
		C551.34,620.161,552.955,618.38,555.4,616.355z"/>
	<path fill-rule="evenodd" clip-rule="evenodd" fill="#603913" d="M242.662,155.145c16.268-5.586,33.313-9.779,51.939-2.751
		c-8.036,6.489-9.585,15.006-11.023,23.574c-4.628,27.587-2.866,55.186-0.243,82.798c0.534,5.622,0.572,11.29,0.856,17.299
		c-7.606,0-14.963,0-22.887,0c0.834-5.005,1.529-9.77,2.433-14.495c3.265-17.083,3.537-34.315,1.748-51.508
		c-1.451-13.945-3.433-28.039-10.23-40.535C252.329,164.147,247.058,160.042,242.662,155.145z"/>
	<path fill-rule="evenodd" clip-rule="evenodd" fill="#603913" d="M623.829,509.479c4.263,0,8.531,0.123,12.787-0.035
		c4.175-0.156,7.812-1.867,8.014-6.432c0.451-10.125,4.486-18.998,10.746-26.259c10.572-12.267,18.193-26.293,26.689-39.854
		c5.745-9.171,12.187-18.059,22.441-22.997c1.401-0.675,2.903-1.468,4.395-1.553c2.076-0.119,4.668-0.253,6.106,0.843
		c0.91,0.692,0.529,3.73,0.028,5.52c-3.442,12.28-7.173,24.422-13.395,35.716c-12.972,23.541-30.091,42.894-55.123,53.792
		c-10.539,4.589-21.776,7.613-32.79,11.05c-4.232,1.32-6.76-2.026-8.847-4.935c-1.362-1.898,2.216-5.097,5.708-5.138
		c4.412-0.05,8.826-0.012,13.239-0.012C623.829,509.283,623.829,509.381,623.829,509.479z"/>
	<path fill-rule="evenodd" clip-rule="evenodd" fill="#603913" d="M389.565,421.198c1.42-9.705,7.555-14.32,16.502-16.949
		c5.321-1.563,10.134-4.875,15.148-7.455c1.326-0.683,2.549-1.564,4.397-2.715c-0.98,5.788-1.755,10.693-2.691,15.566
		c-0.154,0.801-0.876,1.895-1.577,2.128c-10.139,3.373-20.316,6.628-30.5,9.865C390.496,421.748,389.987,421.353,389.565,421.198z"
		/>
	<path fill-rule="evenodd" clip-rule="evenodd" fill="#603913" d="M247.07,241.329c-17.093,3.992-21.936,22.538-9.549,34.894
		c-5.524,1.797-10.046-1.521-10.687-8.719c-0.565-6.347-0.999-12.759,2.001-18.947c2.834-5.845,7.743-8.993,13.268-11.225
		c1.366-0.552,3.771,1.465,5.698,2.301C247.557,240.198,247.313,240.764,247.07,241.329z"/>
	<path fill-rule="evenodd" clip-rule="evenodd" fill="#603913" d="M208.605,287.67c-6.19,4.581-12.656,9.365-18.817,13.925
		C189.095,292.983,197.013,287.011,208.605,287.67z"/>
	<path fill-rule="evenodd" clip-rule="evenodd" fill="#603913" d="M352.438,277.045c-12,0.495-19.667-5.273-21.189-15.57
		c-2.11-14.269,7.803-24.85,16.66-27.192c10.091-2.667,18.835-0.625,25.287,7.093c6.626,7.927,7.576,17.287,2.912,26.938
		c-3.116,6.448-8.965,7.894-15.154,8.672C358.156,277.337,355.278,277.045,352.438,277.045z M355.337,275.406
		c10.017,0.968,18.741-9.142,18.687-17.833c-0.062-10.025-9.154-19.523-18.802-19.103c-11.046,0.48-18.851,9.316-18.447,19.276
		C337.2,268.229,344.542,275.5,355.337,275.406z"/>
</g>
<g>
	<path fill-rule="evenodd" clip-rule="evenodd" fill="#FBB040" d="M447.666,748.524c4.19,1.493,8.377,2.999,12.573,4.476
		c2.938,1.035,5.913,1.97,8.831,3.059c11.675,4.36,16.019,14.033,16.638,25.26c0.772,14.032,0.691,28.144,0.263,42.199
		c-0.334,10.949-5.208,15.418-16.441,17.018c-2.341,0.333-4.671,0.785-6.982,1.286c-3.976,0.86-5.537-1.252-5.714-4.751
		c-0.296-5.849-0.324-11.708-0.613-17.557c-0.742-15.006-1.556-30.009-2.384-45.012c-0.047-0.844-0.475-1.668-0.725-2.501
		c-0.404-0.006-0.81-0.012-1.214-0.018c-0.683,7.187-1.71,14.36-1.977,21.562c-0.521,14.077-0.609,28.168-0.891,42.253
		c-0.11,5.489-1.207,6.656-6.65,6.756c-7.748,0.14-15.508-0.032-23.244,0.326c-4.673,0.217-5.805-1.605-5.77-6.05
		c0.106-13.921-0.083-27.851-0.506-41.766c-0.154-5.057-1.29-10.082-1.977-15.122c-0.546,0.004-1.091,0.007-1.637,0.011
		c-0.35,1.539-0.976,3.072-1.009,4.618c-0.374,17.547-0.705,35.096-0.938,52.646c-0.071,5.355-0.325,5.789-5.645,4.889
		c-6.056-1.024-12.071-2.29-18.124-3.339c-4.576-0.793-6.655-4.092-6.648-8.028c0.02-13.083,0.199-26.189,1.029-39.241
		c0.395-6.211,2.215-12.366,3.718-18.466c2.336-9.477,9.37-14.531,17.843-17.989c5.873-2.396,11.817-4.615,17.525-7.643
		c-9.793-0.858-19.193,0.262-28.377,4.716c-3.453-12.898-5.335-25.428-4.045-38.275c0.395-3.928,2.979-5.241,6.223-3.136
		c4.484,2.911,8.892,5.999,13.005,9.407c3.936,3.26,5.421,3.042,7.263-1.884c1.195-3.196,2.487-6.355,3.939-10.05
		c4.191,3.057,7.956,5.753,11.667,8.521c5.571,4.154,6.348,3.959,8.763-2.577c1.514-4.1,2.942-8.232,4.696-13.155
		c4.923,4.705,9.442,8.762,13.642,13.129c2.775,2.886,4.727,2.484,6.757-0.618c1.441-2.201,3.011-4.319,4.522-6.474
		c0.427,0.058,0.854,0.114,1.28,0.171c2.359,14.164,4.719,28.327,7.138,42.847c-8.427-1.267-16.823-2.528-25.22-3.79
		C448.056,746.995,447.86,747.76,447.666,748.524z"/>
	<path fill-rule="evenodd" clip-rule="evenodd" fill="#FBB040" d="M239.726,735.381c-6.692,0.74-10.582,4.318-13.668,8.924
		c-12.062,17.995-14.78,37.861-11.563,58.88c0.09,0.589-0.046,1.213-0.15,3.289c-1.852-2.066-3.406-3.116-3.99-4.557
		c-7.334-18.086-8.369-36.11,1.22-53.803c4.462-8.233,12.1-12.613,20.487-15.771c18.894-7.114,36.765-3.214,54.169,5.309
		c2.005,0.982,4.144,1.69,6.502,2.019c-2.147-6.604-7.55-9.649-13.109-11.861c-6.078-2.418-12.56-3.864-18.929-5.484
		c-2.463-0.626-4.167-1.334-3.704-4.297c1.121-7.162,2.179-14.334,3.317-21.493c0.054-0.339,0.629-0.595,1.413-1.287
		c1.413,2.62,2.597,5.128,4.063,7.458c1.712,2.721,3.885,3.73,6.491,0.925c0.107-0.115,0.229-0.22,0.352-0.319
		c6.238-5.051,6.288-5.073,9.987,2.082c1.351,2.613,2.42,5.372,4.138,9.235c5.008-6.112,9.482-11.572,14.367-17.534
		c3.897,6.908,7.447,13.316,11.112,19.66c2.474,4.282,3.033,4.291,6.102,0.449c1.279-1.602,2.405-3.325,3.693-4.919
		c1.887-2.335,2.994-5.929,7.255-4.595c4.123,1.29,7.629,5.732,7.491,9.917c-0.189,5.692-0.509,11.382-0.851,17.067
		c-0.969,16.086-1.838,32.182-3.017,48.254c-0.894,12.192-5.617,16.636-18.511,18.56c-11.532,1.72-22.983,4.47-34.571,5.216
		c-16.532,1.065-33.155,0.778-49.74,0.936c-4.936,0.047-7.318-3.145-8.158-7.631c-2.19-11.691-1.711-23.336,1.667-34.701
		c1.816-6.109,4.158-12.153,7.061-17.817C232.723,743.446,236.125,740.083,239.726,735.381z"/>
	<path fill-rule="evenodd" clip-rule="evenodd" fill="#FBB040" d="M617.385,695.216c2.648-6.528,5.152-12.701,7.91-19.499
		c6.206,7.968,12,15.406,18.254,23.436c2.054-2.615,3.91-4.98,6.193-7.891c0.916,6.529,2.005,12.467,2.536,18.453
		c1.271,14.329,2.56,28.667,3.288,43.029c0.432,8.498-0.268,17.051-0.314,25.579c-0.041,7.699-5.28,10.775-11.439,12.545
		c-17.631,5.065-35.666,7.51-54.014,8.102c-5.784,0.187-9.347-3.097-10.604-9.499c-2.743-13.963,0.074-27.65,1.55-41.421
		c0.351-3.279,0.408-6.592,0.601-9.888c-0.552-0.089-1.104-0.178-1.655-0.268c-0.456,1.018-1.115,1.992-1.337,3.058
		c-2.108,10.137-4.829,20.212-5.954,30.46c-0.74,6.726,0.556,13.751,1.552,20.552c0.411,2.808-0.452,3.396-2.659,3.675
		c-10.723,1.36-16.547-3.812-18.91-14.373c-3.046-13.607-1.267-26.66,1.885-39.817c0.334-1.395,0.045-2.938,0.045-4.769
		c-4.804,3.707-7.565,10.031-8.735,25.244c-0.68,8.822,0.882,17.816,1.439,26.785c-3.557-2.436-3.519-6.734-4.101-10.572
		c-1.837-12.14-1.499-24.164,1.807-36.122c2.618-9.475,9.188-14.144,18.205-15.52c10.74-1.638,21.593-2.532,32.392-3.793
		c1.475-0.173,2.918-0.601,4.377-0.91c0.033-0.557,0.065-1.113,0.1-1.67c-2.596-0.376-5.229-1.229-7.778-1.025
		c-4.977,0.396-7.267-1.677-7.908-6.478c-1.157-8.657-2.493-17.283,1.502-25.616c0.589-1.229,1.257-2.418,2.288-4.39
		c5.697,5.699,10.922,10.924,16.275,16.278C609.178,691.002,609.178,691.002,617.385,695.216z"/>
	<path fill-rule="evenodd" clip-rule="evenodd" fill="#FBB040" d="M505.363,717.731c-3.776-1.217-5.267,1.054-6.613,3.393
		c-5.46,9.485-7.667,19.914-8.844,30.648c-0.305,2.776-0.877,5.524-1.406,8.774c-4.689-2.116-6.726-5.757-7.359-9.964
		c-1.389-9.213-2.549-18.473-3.303-27.753c-0.119-1.461,2.074-3.965,3.717-4.561c6.767-2.458,13.624-4.893,20.653-6.347
		c9.533-1.973,9.613-1.584,9.574-11.104c-0.006-1.381,0-2.762,0-4.776c9.515,6.368,12.429-4.006,19.002-6.606
		c3.204,3.568,6.564,7.265,9.873,11.006c4.024,4.549,4.983,4.452,7.998-0.961c0.814-1.465,1.596-2.948,2.763-5.11
		c2.406,3.621,4.351,6.615,6.374,9.556c0.655,0.953,1.515,1.767,2.28,2.644c0.884-1.008,2.064-1.879,2.603-3.046
		c2.484-5.384,4.789-10.851,7.158-16.288c0.447-0.043,0.896-0.087,1.343-0.131c1.071,4.056,2.281,8.08,3.177,12.175
		c1.04,4.756,1.503,9.655,2.782,14.338c1.066,3.901,0.403,5.099-3.895,5.606c-7.143,0.845-14.293,2.301-21.191,4.34
		c-7.938,2.346-12.138,8.766-14.38,16.329c-3.526,11.894-5.508,23.973-3.307,36.44c0.5,2.833-1.109,4.423-4.079,4.422
		c-8.391-0.005-16.783,0.148-25.169-0.058c-5.908-0.145-7.994-2.626-8.305-8.605c-0.816-15.717,0.198-31.261,4.54-46.448
		C502.093,723.046,503.812,720.728,505.363,717.731z"/>
	<path fill-rule="evenodd" clip-rule="evenodd" fill="#FBB040" d="M255.181,272.807c0.271-1.563,0.517-3.131,0.819-4.688
		c2.957-15.196,1.253-29.223-10.631-40.453c-8.963-8.47-21.764-6.306-27.3,4.674c-2.272,4.506-3.761,9.407-6.299,14.136
		c-0.41-5.71-1.059-11.415-1.176-17.131c-0.198-9.646,0.118-19.304-0.131-28.948c-0.135-5.229,2.243-7.686,7.059-8.919
		c3.299-0.844,6.574-2.166,9.506-3.877c1.257-0.734,2.272-3.052,2.153-4.551c-0.075-0.946-2.45-2.409-3.799-2.415
		c-3.321-0.016-6.647,0.675-10.999,1.208c0.517-1.863,0.934-4.222,1.816-6.393c2.993-7.366,8.751-11.925,16.099-14.188
		c7.216-2.223,13.774,1.009,17.796,8.181c4.984,8.891,7.389,18.542,9.077,28.575c3.04,18.079,3.31,36.179,1.618,54.326
		c-0.647,6.946-2.353,13.794-3.576,20.687C256.535,272.957,255.858,272.882,255.181,272.807z"/>
	<path fill-rule="evenodd" clip-rule="evenodd" fill="#FBB040" d="M194.617,332.925c6.069,2.283,12.048,4.399,17.895,6.831
		c1.338,0.556,2.792,2.02,3.224,3.375c2.663,8.342,6.025,16.237,12.378,22.534c0.406,0.402,0.562,1.056,0.894,1.712
		C213.002,365.833,200.839,351.384,194.617,332.925z"/>
	<path fill-rule="evenodd" clip-rule="evenodd" fill="#FBB040" d="M210.167,280.01c0.557-4.003,1.019-7.324,1.555-11.184
		C215.569,274.926,215.18,278.717,210.167,280.01z"/>
	<path fill-rule="evenodd" clip-rule="evenodd" fill="#FBB040" d="M719.689,421.219c4.909,10.1-9.817,40.858-21.784,49.846
		c4.11-7.97,8.702-15.889,12.347-24.222C713.885,438.539,716.567,429.822,719.689,421.219z"/>
</g>
<path fill-rule="evenodd" clip-rule="evenodd" fill="#DB9C94" d="M508.162,93.931c-1.017,29.112-2.854,55.905-9.784,82.023
	c-1.878,7.074-4.555,14.012-7.604,20.674c-2.494,5.448-8.108,6.744-13.178,3.627c-12.146-7.466-21.805-17.301-26.876-30.83
	c-1.673-4.464-2.643-9.511-2.539-14.26c0.275-12.594,0.125-25.384,2.347-37.7c2.794-15.496,8.609-30.348,17.334-43.625
	c5.77-8.78,12.166-17.271,19.204-25.057c5.411-5.987,11.265-4.618,14.168,2.847c2.486,6.393,4.426,13.154,5.428,19.927
	C507.86,79.663,507.807,87.952,508.162,93.931z"/>
<g>
	<path fill-rule="evenodd" clip-rule="evenodd" fill="#2E3192" d="M290.802,546.362c14.712-1.285,22.319-11.713,27.652-23.515
		c4.555-10.079,7.311-21.019,10.322-31.729c1.373-4.881,1.457-10.13-3.118-14.917c37.179-0.761,71.929-9.891,104.122-28.123
		c4.318,5.094,4.266,5.658-1.306,9.046c-9.139,5.556-13.553,13.706-13.713,24.331c-0.185,12.292,1.578,24.1,7.34,35.2
		c4.125,7.948,11.414,11.722,19.022,14.723c6.061,2.392,12.571,3.872,19.014,5.02c13.362,2.378,21.599-4.275,22.885-17.657
		c0.479-4.992,0.077-10.068,0.077-16.103c6.613,1.062,12.58,1.914,18.506,2.993c9.462,1.724,18.909,3.537,28.338,5.438
		c3.856,0.776,8.166,1.062,11.313,3.071c2.857,1.822,5.465,5.401,6.337,8.696c2.088,7.878,3.263,16.019,4.493,24.102
		c2.588,17.005,1.1,33.802-4.585,49.951c-5.284,15.01-16.229,24.978-31.118,30.388c-17.007,6.179-34.097,12.136-51.229,17.954
		c-1.165,0.396-3.94-0.806-4.35-1.881c-1.724-4.523-3.625-9.229-3.939-13.97c-0.302-4.554,1.004-9.293,2.071-13.842
		c6.4-27.291-3.991-47.773-29.009-59.835c-18.315-8.831-36.751-7.081-54.539,3.478c-21.73,12.898-36.792,30.829-44.074,55.081
		c-1.913,6.369-3.254,12.882-1.238,19.576c0.284,0.942,0.04,2.043,0.04,3.302C302.468,616.731,287.29,572.984,290.802,546.362z
		 M525.928,548.082c-0.007,0.104-0.016,0.208-0.024,0.312c-2.839,0.232-5.696,0.341-8.517,0.724
		c-5.654,0.767-7.822,3.093-8.969,8.608c-2.785,13.405-5.446,26.847-8.667,40.15c-2.375,9.811,2.219,15.299,12.141,13.479
		c5.733-1.052,11.39-2.643,17.16-3.342c5.368-0.651,7.753-4.113,9.017-8.468c1.92-6.611,3.686-13.322,4.747-20.111
		c1.191-7.62,1.72-15.363,2.157-23.075c0.234-4.106-1.91-6.977-6.315-7.39C534.424,548.571,530.173,548.37,525.928,548.082z"/>
	<path fill-rule="evenodd" clip-rule="evenodd" fill="#2E3192" d="M301.785,107.103c-15.727,1.267-31.624,1.514-47.128,4.108
		c-13.544,2.267-26.718,6.945-39.896,11.07c-3.591,1.125-5.417,1.241-6.948-2.477c-5.332-12.945-10.117-25.852-5.935-40.26
		c2.8-9.645,8.358-17.562,14.562-25.148c8.758-10.712,18.546-20.438,30.945-26.747c6.018-3.062,12.875-5.594,19.522-6.087
		c18.442-1.369,36.493,1.95,54.141,7.319c36.384,11.068,68.84,29.917,100.282,50.758c3.647,2.417,7.154,5.061,10.896,7.319
		c3.399,2.051,3.475,4.603,2.388,8.015c-3.278,10.29-6.465,20.614-9.365,31.016c-0.913,3.271-2.655,3.55-5.243,2.788
		c-9.023-2.657-17.938-5.746-27.066-7.959c-12.84-3.113-25.734-6.299-38.789-8.158c-16.068-2.288-32.324-3.251-48.502-4.76
		c-1.255-0.117-2.531-0.015-3.797-0.015C301.83,107.623,301.807,107.363,301.785,107.103z M288.765,51.257
		c1.072-2.812-1.038-4.374-4.254-6.143c-2.535-1.396-4.993-3.977-6.155-6.617c-2.93-6.658-5.955-9.799-12.827-9.12
		c-7.303,0.721-14.584,2.361-21.67,4.336c-4.265,1.188-7.371,4.021-8.309,9.215c-0.66,3.657-3.436,6.895-4.995,10.439
		c-1.482,3.37-4.008,7.042-3.663,10.327c1.777,16.884,8.057,31.627,22.626,41.745c5.675,3.941,10.122,3.673,15.282-1.074
		C280.018,90.36,286.418,72.349,288.765,51.257z"/>
	<path fill-rule="evenodd" clip-rule="evenodd" fill="#2E3192" d="M647.08,435.576c-2.192,18.453-4.357,36.909-6.605,55.354
		c-0.322,2.637-1.118,5.211-1.574,7.834c-0.688,3.96-3.629,4.183-6.438,3.418c-13.191-3.589-26.302-7.475-39.471-11.145
		c-14.067-3.92-28.184-7.665-42.251-11.584c-13.162-3.668-26.29-7.455-39.43-11.202c-7.853-2.238-15.626-4.812-23.572-6.642
		c-5.64-1.299-8.086-4.85-8.357-9.954c-0.891-16.729-2.273-33.488-1.957-50.207c0.304-16.063,2.487-32.09,3.848-48.133
		c0.027-0.315,0.063-0.632,0.127-0.94c2.697-13.14,5.686-14.649,18.933-12.209c28.882,5.319,55.035,17.834,80.991,30.606
		c16.329,8.034,31.81,17.798,47.626,26.864c12.975,7.437,18.717,18.628,17.119,33.55
		C645.917,432.595,646.736,435.536,647.08,435.576z M610.263,485.219c4.975-1.282,9.965-2.504,14.919-3.862
		c8.661-2.377,11.01-8.635,11.135-16.948c0.085-5.569,0.731-11.455,2.698-16.599c3.489-9.13,2.911-18.264,1.572-27.405
		c-0.344-2.349-3.206-5.205-5.597-6.229c-11.375-4.876-22.999-9.167-34.509-13.734c-6.881-2.729-13.812-2.808-20.642-0.177
		c-2.85,1.099-5.344,2.633-5.885,6.549c-1.076,7.792-3.174,15.44-4.31,23.226c-1.66,11.386-2.984,22.825-4.165,34.271
		c-0.494,4.788,1.817,8.084,6.657,9.566c3.433,1.051,6.731,2.539,10.099,3.809C591.218,481.069,600.166,484.594,610.263,485.219z
		 M568.889,406.754c0.18-4.284-0.094-10.239-4.599-14.38c-11.724-10.779-24.366-19.828-41.016-21.702
		c-13.833-1.557-24.632,3.633-30.639,16.079c-4.995,10.349-4.241,21.139-2.129,32.019c1.582,8.152,5.536,14.701,12.656,19.075
		c8.7,5.344,18.521,7.5,28.355,9.531c6.16,1.273,12.448,1.871,17.69-2.304c2.879-2.292,4.419-6.302,7.348-8.483
		C566.194,429.408,568.893,419.505,568.889,406.754z"/>
	<path fill-rule="evenodd" clip-rule="evenodd" fill="#2E3192" d="M358.491,649.345c-10.111,2.339-22.073-10.164-21.201-20.067
		c0.682-7.743,1.704-16.006,5.01-22.862c9.441-19.581,23.177-35.639,43.54-44.815c18.44-8.309,35.851-5.995,51.937,6.066
		c12.163,9.119,18.686,21.188,17.815,36.642c-0.235,4.181-1.317,8.313-2.24,13.843c-3.489-7.697-6.334-14.179-9.352-20.579
		c-4.76-10.097-11.003-18.848-22.101-22.777c-7.861-2.783-15.961-2.164-23.907-0.729c-21.704,3.92-37.822,15.737-48.12,35.267
		c-4.592,8.71-4.49,18-2.058,27.23c0.563,2.141,2.89,3.833,4.461,5.684C354.139,644.437,356.062,646.576,358.491,649.345z"/>
	<path fill-rule="evenodd" clip-rule="evenodd" fill="#2E3192" d="M321.832,638.399c-50.772-23.044-73.392-64.554-61.526-122.491
		c0.654,1.307,1.256,2.128,1.494,3.043c2.747,10.592,8.359,19.092,18.393,23.922c3.727,1.795,4.147,4.457,4.421,7.939
		c0.826,10.515,0.837,21.262,3.182,31.454c4.623,20.1,13.725,38.099,29.531,52.071C318.841,635.677,320.331,637.044,321.832,638.399
		z"/>
	<path fill-rule="evenodd" clip-rule="evenodd" fill="#2E3192" d="M459.481,360.871c0,4.562-0.054,8.725,0.009,12.885
		c0.263,17.555,0.375,35.114,0.929,52.66c0.249,7.876,1.307,15.736,2.193,23.581c0.506,4.474-0.95,6.095-5.338,5.328
		c-8.37-1.464-15.825-14.195-13.827-22.353c2.238-9.133,1.127-18.221-2.957-26.787c-0.657-1.378-1.671-3.005-2.947-3.6
		c-5.842-2.72-3.772-5.874-1.076-9.57C444.133,382.505,451.626,371.868,459.481,360.871z"/>
	<path fill-rule="evenodd" clip-rule="evenodd" fill="#2E3192" d="M498.064,334.105c-1.838,0.1-3.678,0.195-5.516,0.301
		c-10.258,0.593-13.338,1.6-15.627,13.972c-5.375,29.043-6.449,58.397-3.448,87.851c0.682,6.683,0.98,13.403,1.461,20.181
		c-5.498,1.21-6.618,0.805-7.026-4.812c-1.214-16.708-2.701-33.437-2.879-50.169c-0.172-16.079,0.766-32.205,2.044-48.244
		c0.445-5.582,2.959-11.156,5.372-16.341c0.875-1.879,4.144-3.515,6.442-3.695c6.353-0.5,12.77-0.173,19.16-0.173
		C498.054,333.352,498.059,333.729,498.064,334.105z"/>
	<path fill-rule="evenodd" clip-rule="evenodd" fill="#2E3192" d="M476.276,476.993c4.494,2.145,9.874,5.205,15.599,7.344
		c12.754,4.764,25.558,9.47,38.589,13.37c5.682,1.701,8.569,5.145,11.411,10.535c-5.24-0.811-9.824-1.414-14.367-2.241
		c-13.772-2.508-27.563-4.947-41.254-7.854c-1.768-0.376-3.521-3.125-4.353-5.155C479.702,487.618,478.012,482.036,476.276,476.993z
		"/>
	<path fill-rule="evenodd" clip-rule="evenodd" fill="#2E3192" d="M463.548,459.76c50.138,13.843,100.275,27.686,150.413,41.529
		c-0.004,0.239-0.007,0.479-0.01,0.72c-5.302,0-10.814,0.94-15.862-0.194c-10.74-2.416-21.228-5.947-31.838-8.954
		c-15.851-4.492-31.742-8.847-47.571-13.414c-10.543-3.043-21.023-6.307-31.505-9.562c-6.695-2.081-13.366-4.249-19.985-6.557
		c-1.511-0.525-2.765-1.785-4.137-2.706C463.218,460.334,463.383,460.046,463.548,459.76z"/>
	<path fill-rule="evenodd" clip-rule="evenodd" fill="#2E3192" d="M555.872,595.459c9.851-34.702,2.427-66.872-14.147-98.384
		c6.147,0.778,9.239,4.563,11.945,8.398c6.223,8.817,9.467,18.979,10.173,29.548c0.787,11.786,0.908,23.724-0.053,35.482
		c-0.689,8.431-3.634,16.678-5.572,25.006C557.436,595.493,556.653,595.476,555.872,595.459z"/>
	<path fill-rule="evenodd" clip-rule="evenodd" fill="#2E3192" d="M553.182,494.038c6.158,1.668,12.311,3.356,18.475,5.002
		c7.896,2.108,15.807,4.167,23.702,6.279c3.614,0.967,4.591,3.385,3.519,7.256c-2.794-0.923-5.512-1.916-8.282-2.719
		c-8.712-2.524-17.539-4.695-26.13-7.574c-4.281-1.435-8.143-4.114-12.194-6.23C552.574,495.38,552.877,494.709,553.182,494.038z"/>
	<path fill-rule="evenodd" clip-rule="evenodd" fill="#2E3192" d="M287.708,627.031c-13.549-9.273-25.67-20.815-30.663-37.835
		C267.356,601.918,277.805,614.812,287.708,627.031z"/>
	<path fill-rule="evenodd" clip-rule="evenodd" fill="#2E3192" d="M504.188,479.981c11.318,3.276,22.637,6.554,34.262,9.92
		c-3.874,2.378-3.913,2.489-10.898,0.13c-7.971-2.692-15.865-5.608-23.792-8.427C503.902,481.063,504.045,480.522,504.188,479.981z"
		/>
	<path fill-rule="evenodd" clip-rule="evenodd" fill="#2E3192" d="M586.037,432.252c4.906,2.166,8.895,4.23,13.089,5.716
		c9.611,3.407,19.248,6.79,29.031,9.644c3.796,1.107,5.186,2.186,4.445,6.444c-1.181,6.776-1.451,13.712-2.187,21.425
		c-9.404-2.449-18.181-4.602-26.876-7.048c-5.14-1.445-10.328-2.97-15.127-5.236c-1.959-0.926-4.182-3.926-4.154-5.953
		C584.364,449.255,585.316,441.277,586.037,432.252z"/>
	<path fill-rule="evenodd" clip-rule="evenodd" fill="#2E3192" d="M636.996,431.262c0.955,12.164,0.046,13.334-11.757,11.184
		c-12.792-2.33-24.422-7.996-35.67-14.345c-1.028-0.58-1.861-2.616-1.762-3.896c0.43-5.492,0.982-11.003,2.015-16.407
		c0.631-3.304,2.852-5.28,6.639-3.767c6.254,2.499,12.504,5.01,18.771,7.477c4.362,1.717,8.714,3.472,13.134,5.026
		c7.425,2.61,8.419,3.893,8.371,11.433C636.729,429.066,636.901,430.165,636.996,431.262z"/>
	<path fill-rule="evenodd" clip-rule="evenodd" fill="#2E3192" d="M614.605,478.323c-2.685-0.233-5.466-0.094-8.037-0.766
		c-10.326-2.701-20.643-5.476-30.841-8.616c-3.14-0.968-5.05-3.567-4.522-7.41c1.779-12.964,3.402-25.948,5.148-38.917
		c0.589-4.382,1.346-8.743,2.062-13.107c0.656-4.004,2.884-5.74,7.438-4.717c-1.339,8.722-2.747,17.353-3.966,26.01
		c-1.056,7.493-2.265,14.993-2.747,22.53c-0.779,12.171,2.004,12.396,12.713,16.553c7.427,2.883,15.285,4.655,22.95,6.924
		C614.738,477.312,614.671,477.818,614.605,478.323z"/>
	<path fill-rule="evenodd" clip-rule="evenodd" fill="#2E3192" d="M511.394,561.473c-0.297-6.183,2.397-7.29,7.729-7.57
		c5.793-0.305,11.611-0.169,17.418-0.21c2.839-0.019,3.994,1.585,3.805,4.233c-0.438,6.127-0.503,12.328-1.555,18.352
		c-1.213,6.944-3.716,13.663-4.908,20.609c-0.782,4.559-3.312,6.716-7.234,7.44c-5.853,1.081-11.775,1.981-17.708,2.367
		c-5.216,0.338-6.399-1.824-4.958-7.275C506.914,588.336,512.577,560.15,511.394,561.473z"/>
</g>
<g>
	<path fill-rule="evenodd" clip-rule="evenodd" fill="#BE1E2D" d="M501.006,404.476c0.307-3.289,0.291-6.647,0.975-9.855
		c2.839-13.328,9.917-18.135,23.175-15.771c11.325,2.02,21.483,6.958,31.207,12.919c3.876,2.375,6.254,5.677,7.011,10.168
		c2.287,13.567,0.463,25.054-11.374,31.734c-6.249,3.526-13.095,4.114-19.701,2.698c-6.215-1.332-12.297-3.88-18.034-6.71
		C503.958,424.575,500.347,415.603,501.006,404.476z"/>
	<path fill-rule="evenodd" clip-rule="evenodd" fill="#BE1E2D" d="M495.702,400.732c1.082,5.979,1.524,13.681,4,20.663
		c2.633,7.426,9.7,11.295,17.234,14.778C502.253,435.609,491.959,419.018,495.702,400.732z"/>
</g>
<g>
	<path fill-rule="evenodd" clip-rule="evenodd" fill="#F9ED32" d="M422.373,141.181c-66.759-20.828-134.539-22.028-202.957-14.462
		c-0.089-0.395-0.178-0.79-0.267-1.184c10.141-2.621,20.145-6.331,30.452-7.621c17.661-2.21,35.502-3.843,53.285-4.007
		c22.43-0.207,44.754,2.497,66.669,7.576c16.522,3.829,32.944,8.088,49.401,12.196C424.472,135.054,424.689,135.617,422.373,141.181
		z"/>
	<path fill-rule="evenodd" clip-rule="evenodd" fill="#F9ED32" d="M453.349,521.212c-0.789-2.024-1.895-3.984-2.311-6.083
		c-1.619-8.178-3.209-16.373-4.358-24.626c-0.262-1.876,0.761-4.519,2.117-5.906c2.599-2.658,5.752-4.836,8.901-6.861
		c1.164-0.749,2.79-1.542,4.475-0.719c0.176,0.573,0.353,1.146,0.528,1.72c-1.195,0.845-2.299,1.88-3.6,2.501
		c-8.725,4.171-11.024,9.39-8.612,19.085c1.588,6.378,2.876,12.83,4.253,19.258c0.081,0.376-0.243,0.838-0.379,1.26
		C454.024,520.964,453.687,521.088,453.349,521.212z"/>
	<path fill-rule="evenodd" clip-rule="evenodd" fill="#F9ED32" d="M466.924,493.773c3.134,1.313,3.335,4.293,3.903,6.418
		c0.586,2.189,0.326,4.802-0.278,6.973c-0.736,2.644-4.384,1.315-4.563,1.074c-2.308-3.094-2.768-6.932-3.227-10.543
		C462.623,496.624,464.169,493.86,466.924,493.773z"/>
	<path fill-rule="evenodd" clip-rule="evenodd" fill="#F9ED32" d="M437.426,515.451c-0.756-1.413-1.335-4.153-1.566-5.647
		c-1.494-9.623-4.077-17.908-3.998-28.938c0.012-1.603,0.891-3.881,2.144-4.979c3.529-3.093,7.37-5.859,11.279-8.469
		c1.074-0.718,2.936-1.774,4.252-0.614c0.119,0.567,0.238,1.134,0.358,1.701c-1.527,1.011-2.997,2.126-4.592,3.015
		c-9.51,5.306-12.484,12.091-9.975,22.847c1.486,6.367,2.931,12.742,4.395,19.114C439.166,513.671,437.981,515.26,437.426,515.451z"
		/>
	<path fill-rule="evenodd" clip-rule="evenodd" fill="#F9ED32" d="M283.633,487.364c2.033-3.507,3.378-5.828,5.003-8.631
		c2.657,7.173,6.655,11.951,14.706,12.445c-6.383,6.243-8.089,13.541-7.244,22.98c-5.888-5.249-11.479-6.896-17.679-0.527
		c0-4.351,0-7.575,0-11.589c4.279,3.501,7.875,7.551,13.182,3.543c3.467-2.62,5.001-6.258,4.065-10.384
		C294.409,489.663,291.554,485.516,283.633,487.364z"/>
	<path fill-rule="evenodd" clip-rule="evenodd" fill="#F9ED32" d="M273.218,491.249c2.576-0.367,4.228-0.603,6.235-0.89
		c-0.327,2.559-0.612,4.795-1.079,8.456C276.371,495.875,275.042,493.927,273.218,491.249z"/>
	<circle fill-rule="evenodd" clip-rule="evenodd" fill="#F9ED32" cx="286.561" cy="496.584" r="5.199"/>
</g>
<g>
	<path fill-rule="evenodd" clip-rule="evenodd" fill="#FFFFFF" d="M266.896,72.583c0.35,4.212-1.165,5.135-4.051,5.524
		c-3.764,0.507-7.392,1.975-11.15,2.592c-1.229,0.202-3.475-0.615-3.892-1.564c-1.591-3.623,2.541-10.07,7.446-12.227
		c4.062-1.786,9.251,0.089,11.261,4.152C266.907,71.865,266.957,72.844,266.896,72.583z"/>
	<path fill-rule="evenodd" clip-rule="evenodd" fill="#FFFFFF" d="M277.781,70.213c1.604-8.587,6.864-17.858-3.884-24.137
		c-3.888-11.999-14.127-8.27-22.694-8.946c5.979-2.75,12.095-2.891,18.16-1.751c1.444,0.271,2.524,2.595,3.729,4.01
		c2.69,3.162,5.484,6.25,7.972,9.565c1.137,1.517,2.584,3.689,2.273,5.241c-1.086,5.435-2.876,10.73-4.398,16.078
		C278.553,70.253,278.167,70.233,277.781,70.213z"/>
	<path fill-rule="evenodd" clip-rule="evenodd" fill="#FFFFFF" d="M264.785,95.639c-0.962,1.198-1.859,2.455-2.898,3.583
		c-4.245,4.607-6.258,4.651-11.139,0.741c-6.349-5.087-11.785-10.864-14.818-18.568c-0.585-1.487-1.031-3.03-0.575-4.933
		c1.079,1.992,1.842,4.26,3.295,5.925c4.514,5.172,9.229,10.173,13.988,15.124c2.727,2.836,5.625,2.158,8.408-0.115
		c1.036-0.846,2.121-1.632,3.183-2.445C264.415,95.179,264.6,95.409,264.785,95.639z"/>
	<g>
		<path fill-rule="evenodd" clip-rule="evenodd" fill="#FFFFFF" d="M226.45,277.074c-2.404,2.032-4.953,2.759-6.157-0.951
			c-4.509-13.895-5.504-27.794,1.73-41.174c5.283-9.773,13.115-10.413,20.604-1.965C222.289,243.734,219.221,257.191,226.45,277.074
			z"/>
		<path fill-rule="evenodd" clip-rule="evenodd" fill="#FFFFFF" d="M334.686,276.178c-11.571,1.494-19.561-4.805-20.253-16.413
			c-0.668-11.216,1.782-21.589,9.842-30.001c9.019-9.415,20.406-12.318,32.481-9.123c9.461,2.503,16.515,9.249,20.239,18.949
			c-7.599-7.092-16.317-11.757-26.72-9.702c-4.956,0.979-10.073,3.796-13.938,7.142
			C325.745,246.195,325.538,258.219,334.686,276.178z"/>
		<path fill-rule="evenodd" clip-rule="evenodd" fill="#FFFFFF" d="M357.934,256.176c-0.642-0.984-2.57-2.696-2.809-4.618
			c-0.304-2.448,0.88-4.9,4.257-4.865c2.985,0.032,4.988,1.486,4.963,4.391C364.323,253.813,363.254,256.369,357.934,256.176z"/>
	</g>
	<ellipse fill-rule="evenodd" clip-rule="evenodd" fill="#FFFFFF" cx="242.384" cy="63.826" rx="4.223" ry="5.068"/>
	<ellipse fill-rule="evenodd" clip-rule="evenodd" fill="#FFFFFF" cx="253.546" cy="53.987" rx="4.223" ry="5.068"/>
	<ellipse fill-rule="evenodd" clip-rule="evenodd" fill="#FFFFFF" cx="266.723" cy="57.028" rx="4.223" ry="5.068"/>
</g>
<path fill-rule="evenodd" clip-rule="evenodd" fill="#FBB040" d="M444.836,315.165c-6.097-7.625-13.069-14.576-19.927-21.556
	c-4.874-4.959-7.378-10.582-6.414-17.478c0.718-5.135,1.417-10.326,2.807-15.302c3.661-13.117,5.021-26.477,3.463-39.905
	c-0.803-6.925-2.821-13.942-5.587-20.358c-6.103-14.158-18-22.97-31.025-30.085c-7.322-4-15.497-4.373-24.052-1.995
	c1.69,2.836,3.172,5.323,5.358,8.991c-2.958-0.336-4.354-0.312-5.645-0.671c-9.243-2.571-18.525-5.033-27.648-7.982
	c-2.157-0.697-3.763-3.108-5.613-4.741c-1.449-1.279-2.678-3.18-4.362-3.752c-5.968-2.027-12.054-3.742-18.165-5.306
	c-4.861-1.245-11.664,1.479-13.605,6.338c-2.65,6.629-5.047,13.572-6.082,20.598c-4.297,29.195-1.495,58.44,0.469,87.641
	c0.229,3.417,0.407,7.946,6.073,7.927c0.95-0.003,1.905,1.551,2.857,2.386c-0.151,0.513-0.303,1.025-0.455,1.538
	c-18.812,0-37.625,0-56.438,0c0.002,0.439,0.005,0.878,0.007,1.317c3.444,2.399,7.435,4.292,10.222,7.299
	c6.612,7.135,4.878,15.559,1.013,22.982c-6.462,12.408-16.62,21.165-29.919,26.037c-1.997,0.731-4.841,1.249-3.138,4.445
	c2.649,4.972,5.188,10.065,8.42,14.651c4.817,6.834,10.895,12.678,19.662,13.449c8.27,0.727,16.661,0.656,24.969,0.282
	c24.15-1.087,46.797-7.667,67.899-19.5c2.215-1.242,4.447-2.453,6.671-3.678c0.269,0.557,0.538,1.113,0.806,1.67
	c-16.143,12.81-34.79,20.623-54.784,25.058c-20.152,4.469-40.608,4.228-61.585,1.472c3.108,5.465,6.199,10.794,10.439,14.949
	c10.697,10.48,24.578,13.177,38.827,13.583c8.326,0.237,16.693-1.049,25.046-1.578c2.241-0.142,4.498-0.022,6.747-0.022
	c0.008,0.595,0.017,1.19,0.025,1.786c-10.697,4.396-22.314,3.91-32.668,5.333c0.816,5.678,2.094,11.025,2.195,16.394
	c0.08,4.218,1.396,5.289,5.439,5.488c29.072,1.44,57.755-1.663,86.328-6.639c5.882-1.024,9.104-3.938,10.013-9.8
	c0.331-2.132,1.121-4.257,2.046-6.223c3.597-7.643,10.425-10.45,18.011-13.114c20.415-7.17,35.102-21.189,44.935-40.363
	C455.959,342.127,455.104,328.006,444.836,315.165z M272.286,322.627c-2.052,0-3.716-1.664-3.716-3.717
	c0-2.052,1.664-3.716,3.716-3.716c2.053,0,3.717,1.664,3.717,3.716C276.003,320.963,274.339,322.627,272.286,322.627z
	 M275.665,305.903c0-2.519,2.042-4.561,4.561-4.561s4.561,2.042,4.561,4.561s-2.042,4.561-4.561,4.561
	S275.665,308.422,275.665,305.903z M287.212,327.037c-2.44,0-4.418-1.978-4.418-4.418c0-2.44,1.978-4.418,4.418-4.418
	c2.44,0,4.418,1.978,4.418,4.418C291.63,325.059,289.652,327.037,287.212,327.037z M384.999,269.382
	c-2.871,8.068-9.603,11.812-17.963,12.31c-5.044,0.3-10.12,0.055-15.182,0.055c-0.024,0.291-17.665-0.541-26.392-1.748
	c-9.873-1.366-14.545-7.859-15.687-17.39c-2.118-17.679,2.735-32.652,17.78-43c19.455-13.38,43.167-6.726,54.683,14.988
	C388.156,245.754,389.211,257.542,384.999,269.382z"/>
</svg>
